^C:\USERS\ANTIT\SOURCE\REPOS\HOMEWORK18.5\DEBUG\SOURCE.OBJ
C:\USERS\ANTIT\SOURCE\REPOS\HOMEWORK18.5\DEBUG\HOMEWORK18.5.EXE
C:\USERS\ANTIT\SOURCE\REPOS\HOMEWORK18.5\DEBUG\HOMEWORK18.5.ILK
C:\USERS\ANTIT\SOURCE\REPOS\HOMEWORK18.5\DEBUG\HOMEWORK18.5.PDB
